…
I want to produce a table with each row representing a unique station
id, columns involving number of rides by members, by casual riders, and
their individual proportion of total number of rides.

``` r
(prop_dt <- dt_all02 %>% 
  group_by(start_station_id, member_casual) %>% 
  summarise(n = n()))
```

    ## `summarise()` has grouped output by 'start_station_id'. You can override using
    ## the `.groups` argument.

    ## # A tibble: 1,632 x 3
    ## # Groups:   start_station_id [835]
    ##    start_station_id member_casual     n
    ##    <chr>            <chr>         <int>
    ##  1 13001            casual        13488
    ##  2 13001            member        10852
    ##  3 13006            casual         3212
    ##  4 13006            member         6692
    ##  5 13008            casual        31788
    ##  6 13008            member         8263
    ##  7 13011            casual         5204
    ##  8 13011            member        11765
    ##  9 13016            casual        10233
    ## 10 13016            member        18065
    ## # ... with 1,622 more rows

This tibble having multiple values stacked in a small number of columns
needs the function `pivot_wider` to make it wider.

``` r
prop_dt %>% 
  pivot_wider(names_from = member_casual, values_from = n) %>% 
  mutate(total = casual + member, casual_freq = casual/total, member_freq = member/total) %>% 
  arrange(desc(casual))
```

    ## # A tibble: 835 x 6
    ## # Groups:   start_station_id [835]
    ##    start_station_id casual member total casual_freq member_freq
    ##    <chr>             <int>  <int> <int>       <dbl>       <dbl>
    ##  1 13022             63837  15559 79396       0.804       0.196
    ##  2 13300             34325   9891 44216       0.776       0.224
    ##  3 13008             31788   8263 40051       0.794       0.206
    ##  4 13042             28327  13905 42232       0.671       0.329
    ##  5 LF-005            28322  17425 45747       0.619       0.381
    ##  6 15544             22353   4747 27100       0.825       0.175
    ##  7 TA1308000001      20329  14941 35270       0.576       0.424
    ##  8 TA1308000050      18741  22768 41509       0.451       0.549
    ##  9 13179             16093  15496 31589       0.509       0.491
    ## 10 KA1504000135      15708  20123 35831       0.438       0.562
    ## # ... with 825 more rows
…
